<mxfile host="app.diagrams.net" modified="2021-01-06T22:25:52.979Z" agent="5.0 (Macintosh; Intel Mac OS X 10_15_6) AppleWebKit/605.1.15 (KHTML, like Gecko) Version/14.0.2 Safari/605.1.15" etag="mN_qe6X3Vn3qVA77-KA2" version="14.1.8" type="gitlab">
  <diagram id="dzmdYoVYfxuBY1uru4LR" name="Page-1">
    <mxGraphModel dx="1295" dy="840" grid="1" gridSize="10" guides="1" tooltips="1" connect="1" arrows="1" fold="1" page="1" pageScale="1" pageWidth="827" pageHeight="1169" math="0" shadow="0">
      <root>
        <mxCell id="0" />
        <mxCell id="1" parent="0" />
        <mxCell id="oZsDyoOwrmGQq3moHhBy-1" value="START" style="rounded=1;whiteSpace=wrap;html=1;" vertex="1" parent="1">
          <mxGeometry x="40" y="30" width="120" height="60" as="geometry" />
        </mxCell>
        <mxCell id="oZsDyoOwrmGQq3moHhBy-2" value="Is it cleanly divisible by 4?" style="rhombus;whiteSpace=wrap;html=1;" vertex="1" parent="1">
          <mxGeometry x="13" y="140" width="174" height="120" as="geometry" />
        </mxCell>
        <mxCell id="oZsDyoOwrmGQq3moHhBy-3" value="Not Leap" style="rounded=1;whiteSpace=wrap;html=1;strokeColor=#FFCCCC;fillColor=#FFCCCC;" vertex="1" parent="1">
          <mxGeometry x="40" y="300" width="120" height="60" as="geometry" />
        </mxCell>
        <mxCell id="oZsDyoOwrmGQq3moHhBy-5" value="" style="endArrow=classic;html=1;exitX=0.5;exitY=1;exitDx=0;exitDy=0;" edge="1" parent="1" source="oZsDyoOwrmGQq3moHhBy-1" target="oZsDyoOwrmGQq3moHhBy-2">
          <mxGeometry width="50" height="50" relative="1" as="geometry">
            <mxPoint x="390" y="450" as="sourcePoint" />
            <mxPoint x="440" y="400" as="targetPoint" />
          </mxGeometry>
        </mxCell>
        <mxCell id="oZsDyoOwrmGQq3moHhBy-6" value="" style="endArrow=classic;html=1;" edge="1" parent="1" source="oZsDyoOwrmGQq3moHhBy-2" target="oZsDyoOwrmGQq3moHhBy-3">
          <mxGeometry width="50" height="50" relative="1" as="geometry">
            <mxPoint x="390" y="450" as="sourcePoint" />
            <mxPoint x="440" y="400" as="targetPoint" />
          </mxGeometry>
        </mxCell>
        <mxCell id="oZsDyoOwrmGQq3moHhBy-7" value="Is it &amp;nbsp;divisible by 100?" style="rhombus;whiteSpace=wrap;html=1;" vertex="1" parent="1">
          <mxGeometry x="250" y="160" width="150" height="90" as="geometry" />
        </mxCell>
        <mxCell id="oZsDyoOwrmGQq3moHhBy-8" value="" style="endArrow=classic;html=1;" edge="1" parent="1" source="oZsDyoOwrmGQq3moHhBy-2" target="oZsDyoOwrmGQq3moHhBy-7">
          <mxGeometry width="50" height="50" relative="1" as="geometry">
            <mxPoint x="390" y="450" as="sourcePoint" />
            <mxPoint x="440" y="400" as="targetPoint" />
          </mxGeometry>
        </mxCell>
        <mxCell id="oZsDyoOwrmGQq3moHhBy-9" value="Leap" style="rounded=1;whiteSpace=wrap;html=1;fillColor=#D5E8D4;" vertex="1" parent="1">
          <mxGeometry x="265" y="300" width="120" height="60" as="geometry" />
        </mxCell>
        <mxCell id="oZsDyoOwrmGQq3moHhBy-10" value="" style="endArrow=classic;html=1;" edge="1" parent="1" source="oZsDyoOwrmGQq3moHhBy-7" target="oZsDyoOwrmGQq3moHhBy-9">
          <mxGeometry width="50" height="50" relative="1" as="geometry">
            <mxPoint x="390" y="450" as="sourcePoint" />
            <mxPoint x="440" y="400" as="targetPoint" />
          </mxGeometry>
        </mxCell>
        <mxCell id="oZsDyoOwrmGQq3moHhBy-11" value="NO" style="text;html=1;strokeColor=none;fillColor=none;align=center;verticalAlign=middle;whiteSpace=wrap;rounded=0;" vertex="1" parent="1">
          <mxGeometry x="100" y="270" width="40" height="20" as="geometry" />
        </mxCell>
        <mxCell id="oZsDyoOwrmGQq3moHhBy-12" value="YES" style="text;html=1;strokeColor=none;fillColor=none;align=center;verticalAlign=middle;whiteSpace=wrap;rounded=0;" vertex="1" parent="1">
          <mxGeometry x="200" y="170" width="40" height="20" as="geometry" />
        </mxCell>
        <mxCell id="oZsDyoOwrmGQq3moHhBy-13" value="NO" style="text;html=1;strokeColor=none;fillColor=none;align=center;verticalAlign=middle;whiteSpace=wrap;rounded=0;" vertex="1" parent="1">
          <mxGeometry x="280" y="260" width="40" height="20" as="geometry" />
        </mxCell>
        <mxCell id="oZsDyoOwrmGQq3moHhBy-14" value="Is it divisible by 400?" style="rhombus;whiteSpace=wrap;html=1;" vertex="1" parent="1">
          <mxGeometry x="460" y="165" width="80" height="80" as="geometry" />
        </mxCell>
        <mxCell id="oZsDyoOwrmGQq3moHhBy-15" value="" style="endArrow=classic;html=1;" edge="1" parent="1" source="oZsDyoOwrmGQq3moHhBy-7" target="oZsDyoOwrmGQq3moHhBy-14">
          <mxGeometry width="50" height="50" relative="1" as="geometry">
            <mxPoint x="390" y="450" as="sourcePoint" />
            <mxPoint x="440" y="400" as="targetPoint" />
          </mxGeometry>
        </mxCell>
        <mxCell id="oZsDyoOwrmGQq3moHhBy-16" value="Leap" style="rounded=1;whiteSpace=wrap;html=1;fillColor=#D5E8D4;" vertex="1" parent="1">
          <mxGeometry x="590" y="175" width="120" height="60" as="geometry" />
        </mxCell>
        <mxCell id="oZsDyoOwrmGQq3moHhBy-17" value="No Leap" style="rounded=1;whiteSpace=wrap;html=1;fillColor=#FFCCCC;" vertex="1" parent="1">
          <mxGeometry x="440" y="300" width="120" height="60" as="geometry" />
        </mxCell>
        <mxCell id="oZsDyoOwrmGQq3moHhBy-18" value="" style="endArrow=classic;html=1;" edge="1" parent="1" source="oZsDyoOwrmGQq3moHhBy-14" target="oZsDyoOwrmGQq3moHhBy-17">
          <mxGeometry width="50" height="50" relative="1" as="geometry">
            <mxPoint x="390" y="450" as="sourcePoint" />
            <mxPoint x="440" y="400" as="targetPoint" />
          </mxGeometry>
        </mxCell>
        <mxCell id="oZsDyoOwrmGQq3moHhBy-19" value="" style="endArrow=classic;html=1;" edge="1" parent="1" source="oZsDyoOwrmGQq3moHhBy-14" target="oZsDyoOwrmGQq3moHhBy-16">
          <mxGeometry width="50" height="50" relative="1" as="geometry">
            <mxPoint x="390" y="450" as="sourcePoint" />
            <mxPoint x="440" y="400" as="targetPoint" />
          </mxGeometry>
        </mxCell>
        <mxCell id="oZsDyoOwrmGQq3moHhBy-20" value="YES" style="text;html=1;strokeColor=none;fillColor=none;align=center;verticalAlign=middle;whiteSpace=wrap;rounded=0;" vertex="1" parent="1">
          <mxGeometry x="540" y="175" width="40" height="20" as="geometry" />
        </mxCell>
        <mxCell id="oZsDyoOwrmGQq3moHhBy-21" value="NO" style="text;html=1;strokeColor=none;fillColor=none;align=center;verticalAlign=middle;whiteSpace=wrap;rounded=0;" vertex="1" parent="1">
          <mxGeometry x="500" y="260" width="40" height="20" as="geometry" />
        </mxCell>
        <mxCell id="oZsDyoOwrmGQq3moHhBy-22" value="YES" style="text;html=1;strokeColor=none;fillColor=none;align=center;verticalAlign=middle;whiteSpace=wrap;rounded=0;" vertex="1" parent="1">
          <mxGeometry x="400" y="170" width="40" height="20" as="geometry" />
        </mxCell>
      </root>
    </mxGraphModel>
  </diagram>
</mxfile>
